digraph {
OK -> OK[label="0"];
OK -> JY[label="14"];
OK -> FX[label="1"];
OK -> TD[label="11"];
OK -> VF[label="4"];
OK -> TT[label="13"];
OK -> KR[label="3"];
OK -> HN[label="6"];
OK -> MC[label="7"];
OK -> XM[label="6"];
OK -> XE[label="6"];
OK -> ZF[label="6"];
OK -> DS[label="3"];
OK -> AF[label="5"];
OK -> NL[label="6"];
OK -> LF[label="2"];
OK -> XZ[label="12"];
OK -> TQ[label="4"];
OK -> WO[label="3"];
OK -> TH[label="6"];
OK -> AA[label="5"];
OK -> KB[label="7"];
OK -> IV[label="2"];
OK -> MI[label="8"];
OK -> EX[label="6"];
OK -> ZZ[label="6"];
OK -> KF[label="6"];
OK -> PK[label="3"];
OK -> TR[label="5"];
OK -> YG[label="7"];
OK -> JL[label="7"];
OK -> VL[label="4"];
OK -> XP[label="6"];
OK -> TY[label="6"];
OK -> EM[label="5"];
OK -> BJ[label="6"];
OK -> JJ[label="4"];
OK -> RW[label="1"];
OK -> EI[label="6"];
OK -> SL[label="5"];
OK -> EE[label="8"];
OK -> WK[label="6"];
OK -> AW[label="6"];
OK -> XL[label="8"];
OK -> JF[label="9"];
OK -> LU[label="5"];
OK -> CI[label="4"];
OK -> ED[label="10"];
OK -> JS[label="5"];
OK -> NE[label="2"];
OK -> DI[label="6"];
OK -> WP[label="6"];
OK -> GO[label="2"];
OK -> HP[label="4"];
JY -> OK[label="14"];
JY -> JY[label="0"];
JY -> FX[label="13"];
JY -> TD[label="3"];
JY -> VF[label="10"];
JY -> TT[label="1"];
JY -> KR[label="12"];
JY -> HN[label="9"];
JY -> MC[label="7"];
JY -> XM[label="14"];
JY -> XE[label="12"];
JY -> ZF[label="13"];
JY -> DS[label="11"];
JY -> AF[label="13"];
JY -> NL[label="12"];
JY -> LF[label="12"];
JY -> XZ[label="2"];
JY -> TQ[label="11"];
JY -> WO[label="11"];
JY -> TH[label="8"];
JY -> AA[label="10"];
JY -> KB[label="10"];
JY -> IV[label="14"];
JY -> MI[label="6"];
JY -> EX[label="14"];
JY -> ZZ[label="13"];
JY -> KF[label="11"];
JY -> PK[label="15"];
JY -> TR[label="11"];
JY -> YG[label="8"];
JY -> JL[label="15"];
JY -> VL[label="13"];
JY -> XP[label="11"];
JY -> TY[label="11"];
JY -> EM[label="12"];
JY -> BJ[label="14"];
JY -> JJ[label="13"];
JY -> RW[label="13"];
JY -> EI[label="13"];
JY -> SL[label="15"];
JY -> EE[label="8"];
JY -> WK[label="13"];
JY -> AW[label="13"];
JY -> XL[label="9"];
JY -> JF[label="5"];
JY -> LU[label="9"];
JY -> CI[label="13"];
JY -> ED[label="4"];
JY -> JS[label="12"];
JY -> NE[label="12"];
JY -> DI[label="12"];
JY -> WP[label="11"];
JY -> GO[label="13"];
JY -> HP[label="16"];
FX -> OK[label="1"];
FX -> JY[label="13"];
FX -> FX[label="0"];
FX -> TD[label="10"];
FX -> VF[label="3"];
FX -> TT[label="12"];
FX -> KR[label="2"];
FX -> HN[label="5"];
FX -> MC[label="6"];
FX -> XM[label="5"];
FX -> XE[label="5"];
FX -> ZF[label="5"];
FX -> DS[label="2"];
FX -> AF[label="4"];
FX -> NL[label="5"];
FX -> LF[label="1"];
FX -> XZ[label="11"];
FX -> TQ[label="3"];
FX -> WO[label="4"];
FX -> TH[label="5"];
FX -> AA[label="4"];
FX -> KB[label="6"];
FX -> IV[label="1"];
FX -> MI[label="7"];
FX -> EX[label="5"];
FX -> ZZ[label="5"];
FX -> KF[label="5"];
FX -> PK[label="2"];
FX -> TR[label="4"];
FX -> YG[label="6"];
FX -> JL[label="6"];
FX -> VL[label="3"];
FX -> XP[label="5"];
FX -> TY[label="5"];
FX -> EM[label="4"];
FX -> BJ[label="5"];
FX -> JJ[label="3"];
FX -> RW[label="2"];
FX -> EI[label="5"];
FX -> SL[label="4"];
FX -> EE[label="7"];
FX -> WK[label="5"];
FX -> AW[label="5"];
FX -> XL[label="7"];
FX -> JF[label="8"];
FX -> LU[label="4"];
FX -> CI[label="3"];
FX -> ED[label="9"];
FX -> JS[label="4"];
FX -> NE[label="3"];
FX -> DI[label="5"];
FX -> WP[label="5"];
FX -> GO[label="1"];
FX -> HP[label="3"];
TD -> OK[label="11"];
TD -> JY[label="3"];
TD -> FX[label="10"];
TD -> TD[label="0"];
TD -> VF[label="7"];
TD -> TT[label="2"];
TD -> KR[label="9"];
TD -> HN[label="6"];
TD -> MC[label="4"];
TD -> XM[label="11"];
TD -> XE[label="9"];
TD -> ZF[label="10"];
TD -> DS[label="8"];
TD -> AF[label="10"];
TD -> NL[label="9"];
TD -> LF[label="9"];
TD -> XZ[label="1"];
TD -> TQ[label="8"];
TD -> WO[label="8"];
TD -> TH[label="5"];
TD -> AA[label="7"];
TD -> KB[label="7"];
TD -> IV[label="11"];
TD -> MI[label="3"];
TD -> EX[label="11"];
TD -> ZZ[label="10"];
TD -> KF[label="8"];
TD -> PK[label="12"];
TD -> TR[label="8"];
TD -> YG[label="5"];
TD -> JL[label="12"];
TD -> VL[label="10"];
TD -> XP[label="8"];
TD -> TY[label="8"];
TD -> EM[label="9"];
TD -> BJ[label="11"];
TD -> JJ[label="10"];
TD -> RW[label="10"];
TD -> EI[label="10"];
TD -> SL[label="12"];
TD -> EE[label="5"];
TD -> WK[label="10"];
TD -> AW[label="10"];
TD -> XL[label="6"];
TD -> JF[label="2"];
TD -> LU[label="6"];
TD -> CI[label="10"];
TD -> ED[label="1"];
TD -> JS[label="9"];
TD -> NE[label="9"];
TD -> DI[label="9"];
TD -> WP[label="8"];
TD -> GO[label="10"];
TD -> HP[label="13"];
VF -> OK[label="4"];
VF -> JY[label="10"];
VF -> FX[label="3"];
VF -> TD[label="7"];
VF -> VF[label="0"];
VF -> TT[label="9"];
VF -> KR[label="5"];
VF -> HN[label="5"];
VF -> MC[label="3"];
VF -> XM[label="8"];
VF -> XE[label="8"];
VF -> ZF[label="8"];
VF -> DS[label="1"];
VF -> AF[label="7"];
VF -> NL[label="8"];
VF -> LF[label="2"];
VF -> XZ[label="8"];
VF -> TQ[label="6"];
VF -> WO[label="1"];
VF -> TH[label="2"];
VF -> AA[label="6"];
VF -> KB[label="6"];
VF -> IV[label="4"];
VF -> MI[label="4"];
VF -> EX[label="8"];
VF -> ZZ[label="8"];
VF -> KF[label="7"];
VF -> PK[label="5"];
VF -> TR[label="1"];
VF -> YG[label="4"];
VF -> JL[label="9"];
VF -> VL[label="6"];
VF -> XP[label="7"];
VF -> TY[label="7"];
VF -> EM[label="7"];
VF -> BJ[label="8"];
VF -> JJ[label="6"];
VF -> RW[label="3"];
VF -> EI[label="8"];
VF -> SL[label="7"];
VF -> EE[label="4"];
VF -> WK[label="8"];
VF -> AW[label="8"];
VF -> XL[label="5"];
VF -> JF[label="5"];
VF -> LU[label="1"];
VF -> CI[label="6"];
VF -> ED[label="6"];
VF -> JS[label="7"];
VF -> NE[label="2"];
VF -> DI[label="2"];
VF -> WP[label="7"];
VF -> GO[label="4"];
VF -> HP[label="6"];
TT -> OK[label="13"];
TT -> JY[label="1"];
TT -> FX[label="12"];
TT -> TD[label="2"];
TT -> VF[label="9"];
TT -> TT[label="0"];
TT -> KR[label="11"];
TT -> HN[label="8"];
TT -> MC[label="6"];
TT -> XM[label="13"];
TT -> XE[label="11"];
TT -> ZF[label="12"];
TT -> DS[label="10"];
TT -> AF[label="12"];
TT -> NL[label="11"];
TT -> LF[label="11"];
TT -> XZ[label="1"];
TT -> TQ[label="10"];
TT -> WO[label="10"];
TT -> TH[label="7"];
TT -> AA[label="9"];
TT -> KB[label="9"];
TT -> IV[label="13"];
TT -> MI[label="5"];
TT -> EX[label="13"];
TT -> ZZ[label="12"];
TT -> KF[label="10"];
TT -> PK[label="14"];
TT -> TR[label="10"];
TT -> YG[label="7"];
TT -> JL[label="14"];
TT -> VL[label="12"];
TT -> XP[label="10"];
TT -> TY[label="10"];
TT -> EM[label="11"];
TT -> BJ[label="13"];
TT -> JJ[label="12"];
TT -> RW[label="12"];
TT -> EI[label="12"];
TT -> SL[label="14"];
TT -> EE[label="7"];
TT -> WK[label="12"];
TT -> AW[label="12"];
TT -> XL[label="8"];
TT -> JF[label="4"];
TT -> LU[label="8"];
TT -> CI[label="12"];
TT -> ED[label="3"];
TT -> JS[label="11"];
TT -> NE[label="11"];
TT -> DI[label="11"];
TT -> WP[label="10"];
TT -> GO[label="12"];
TT -> HP[label="15"];
KR -> OK[label="3"];
KR -> JY[label="12"];
KR -> FX[label="2"];
KR -> TD[label="9"];
KR -> VF[label="5"];
KR -> TT[label="11"];
KR -> KR[label="0"];
KR -> HN[label="3"];
KR -> MC[label="5"];
KR -> XM[label="3"];
KR -> XE[label="3"];
KR -> ZF[label="3"];
KR -> DS[label="4"];
KR -> AF[label="2"];
KR -> NL[label="3"];
KR -> LF[label="3"];
KR -> XZ[label="10"];
KR -> TQ[label="1"];
KR -> WO[label="6"];
KR -> TH[label="6"];
KR -> AA[label="2"];
KR -> KB[label="4"];
KR -> IV[label="3"];
KR -> MI[label="6"];
KR -> EX[label="4"];
KR -> ZZ[label="3"];
KR -> KF[label="3"];
KR -> PK[label="4"];
KR -> TR[label="6"];
KR -> YG[label="4"];
KR -> JL[label="4"];
KR -> VL[label="1"];
KR -> XP[label="3"];
KR -> TY[label="3"];
KR -> EM[label="2"];
KR -> BJ[label="3"];
KR -> JJ[label="1"];
KR -> RW[label="4"];
KR -> EI[label="3"];
KR -> SL[label="5"];
KR -> EE[label="6"];
KR -> WK[label="3"];
KR -> AW[label="3"];
KR -> XL[label="5"];
KR -> JF[label="7"];
KR -> LU[label="6"];
KR -> CI[label="1"];
KR -> ED[label="8"];
KR -> JS[label="2"];
KR -> NE[label="5"];
KR -> DI[label="7"];
KR -> WP[label="3"];
KR -> GO[label="1"];
KR -> HP[label="5"];
HN -> OK[label="6"];
HN -> JY[label="9"];
HN -> FX[label="5"];
HN -> TD[label="6"];
HN -> VF[label="5"];
HN -> TT[label="8"];
HN -> KR[label="3"];
HN -> HN[label="0"];
HN -> MC[label="2"];
HN -> XM[label="5"];
HN -> XE[label="3"];
HN -> ZF[label="5"];
HN -> DS[label="6"];
HN -> AF[label="4"];
HN -> NL[label="3"];
HN -> LF[label="6"];
HN -> XZ[label="7"];
HN -> TQ[label="2"];
HN -> WO[label="6"];
HN -> TH[label="3"];
HN -> AA[label="1"];
HN -> KB[label="5"];
HN -> IV[label="6"];
HN -> MI[label="3"];
HN -> EX[label="5"];
HN -> ZZ[label="4"];
HN -> KF[label="2"];
HN -> PK[label="7"];
HN -> TR[label="6"];
HN -> YG[label="1"];
HN -> JL[label="6"];
HN -> VL[label="4"];
HN -> XP[label="2"];
HN -> TY[label="2"];
HN -> EM[label="4"];
HN -> BJ[label="5"];
HN -> JJ[label="4"];
HN -> RW[label="7"];
HN -> EI[label="4"];
HN -> SL[label="6"];
HN -> EE[label="3"];
HN -> WK[label="4"];
HN -> AW[label="5"];
HN -> XL[label="4"];
HN -> JF[label="4"];
HN -> LU[label="4"];
HN -> CI[label="4"];
HN -> ED[label="5"];
HN -> JS[label="3"];
HN -> NE[label="7"];
HN -> DI[label="7"];
HN -> WP[label="5"];
HN -> GO[label="4"];
HN -> HP[label="7"];
MC -> OK[label="7"];
MC -> JY[label="7"];
MC -> FX[label="6"];
MC -> TD[label="4"];
MC -> VF[label="3"];
MC -> TT[label="6"];
MC -> KR[label="5"];
MC -> HN[label="2"];
MC -> MC[label="0"];
MC -> XM[label="7"];
MC -> XE[label="5"];
MC -> ZF[label="6"];
MC -> DS[label="4"];
MC -> AF[label="6"];
MC -> NL[label="5"];
MC -> LF[label="5"];
MC -> XZ[label="5"];
MC -> TQ[label="4"];
MC -> WO[label="4"];
MC -> TH[label="1"];
MC -> AA[label="3"];
MC -> KB[label="3"];
MC -> IV[label="7"];
MC -> MI[label="1"];
MC -> EX[label="7"];
MC -> ZZ[label="6"];
MC -> KF[label="4"];
MC -> PK[label="8"];
MC -> TR[label="4"];
MC -> YG[label="1"];
MC -> JL[label="8"];
MC -> VL[label="6"];
MC -> XP[label="4"];
MC -> TY[label="4"];
MC -> EM[label="5"];
MC -> BJ[label="7"];
MC -> JJ[label="6"];
MC -> RW[label="6"];
MC -> EI[label="6"];
MC -> SL[label="8"];
MC -> EE[label="1"];
MC -> WK[label="6"];
MC -> AW[label="6"];
MC -> XL[label="2"];
MC -> JF[label="2"];
MC -> LU[label="2"];
MC -> CI[label="6"];
MC -> ED[label="3"];
MC -> JS[label="5"];
MC -> NE[label="5"];
MC -> DI[label="5"];
MC -> WP[label="4"];
MC -> GO[label="6"];
MC -> HP[label="9"];
XM -> OK[label="6"];
XM -> JY[label="14"];
XM -> FX[label="5"];
XM -> TD[label="11"];
XM -> VF[label="8"];
XM -> TT[label="13"];
XM -> KR[label="3"];
XM -> HN[label="5"];
XM -> MC[label="7"];
XM -> XM[label="0"];
XM -> XE[label="2"];
XM -> ZF[label="4"];
XM -> DS[label="7"];
XM -> AF[label="1"];
XM -> NL[label="4"];
XM -> LF[label="6"];
XM -> XZ[label="12"];
XM -> TQ[label="4"];
XM -> WO[label="9"];
XM -> TH[label="8"];
XM -> AA[label="4"];
XM -> KB[label="5"];
XM -> IV[label="6"];
XM -> MI[label="8"];
XM -> EX[label="2"];
XM -> ZZ[label="3"];
XM -> KF[label="5"];
XM -> PK[label="5"];
XM -> TR[label="9"];
XM -> YG[label="6"];
XM -> JL[label="1"];
XM -> VL[label="4"];
XM -> XP[label="3"];
XM -> TY[label="5"];
XM -> EM[label="3"];
XM -> BJ[label="2"];
XM -> JJ[label="4"];
XM -> RW[label="7"];
XM -> EI[label="5"];
XM -> SL[label="3"];
XM -> EE[label="7"];
XM -> WK[label="3"];
XM -> AW[label="2"];
XM -> XL[label="6"];
XM -> JF[label="9"];
XM -> LU[label="9"];
XM -> CI[label="2"];
XM -> ED[label="10"];
XM -> JS[label="4"];
XM -> NE[label="8"];
XM -> DI[label="10"];
XM -> WP[label="4"];
XM -> GO[label="4"];
XM -> HP[label="4"];
XE -> OK[label="6"];
XE -> JY[label="12"];
XE -> FX[label="5"];
XE -> TD[label="9"];
XE -> VF[label="8"];
XE -> TT[label="11"];
XE -> KR[label="3"];
XE -> HN[label="3"];
XE -> MC[label="5"];
XE -> XM[label="2"];
XE -> XE[label="0"];
XE -> ZF[label="4"];
XE -> DS[label="7"];
XE -> AF[label="1"];
XE -> NL[label="4"];
XE -> LF[label="6"];
XE -> XZ[label="10"];
XE -> TQ[label="3"];
XE -> WO[label="9"];
XE -> TH[label="6"];
XE -> AA[label="2"];
XE -> KB[label="5"];
XE -> IV[label="6"];
XE -> MI[label="6"];
XE -> EX[label="4"];
XE -> ZZ[label="5"];
XE -> KF[label="3"];
XE -> PK[label="7"];
XE -> TR[label="9"];
XE -> YG[label="4"];
XE -> JL[label="3"];
XE -> VL[label="4"];
XE -> XP[label="1"];
XE -> TY[label="3"];
XE -> EM[label="3"];
XE -> BJ[label="2"];
XE -> JJ[label="4"];
XE -> RW[label="7"];
XE -> EI[label="5"];
XE -> SL[label="5"];
XE -> EE[label="6"];
XE -> WK[label="3"];
XE -> AW[label="2"];
XE -> XL[label="6"];
XE -> JF[label="7"];
XE -> LU[label="7"];
XE -> CI[label="2"];
XE -> ED[label="8"];
XE -> JS[label="4"];
XE -> NE[label="8"];
XE -> DI[label="10"];
XE -> WP[label="4"];
XE -> GO[label="4"];
XE -> HP[label="6"];
ZF -> OK[label="6"];
ZF -> JY[label="13"];
ZF -> FX[label="5"];
ZF -> TD[label="10"];
ZF -> VF[label="8"];
ZF -> TT[label="12"];
ZF -> KR[label="3"];
ZF -> HN[label="5"];
ZF -> MC[label="6"];
ZF -> XM[label="4"];
ZF -> XE[label="4"];
ZF -> ZF[label="0"];
ZF -> DS[label="7"];
ZF -> AF[label="3"];
ZF -> NL[label="2"];
ZF -> LF[label="6"];
ZF -> XZ[label="11"];
ZF -> TQ[label="4"];
ZF -> WO[label="9"];
ZF -> TH[label="7"];
ZF -> AA[label="4"];
ZF -> KB[label="3"];
ZF -> IV[label="6"];
ZF -> MI[label="7"];
ZF -> EX[label="4"];
ZF -> ZZ[label="3"];
ZF -> KF[label="3"];
ZF -> PK[label="7"];
ZF -> TR[label="9"];
ZF -> YG[label="6"];
ZF -> JL[label="5"];
ZF -> VL[label="3"];
ZF -> XP[label="5"];
ZF -> TY[label="3"];
ZF -> EM[label="1"];
ZF -> BJ[label="4"];
ZF -> JJ[label="2"];
ZF -> RW[label="7"];
ZF -> EI[label="1"];
ZF -> SL[label="5"];
ZF -> EE[label="5"];
ZF -> WK[label="3"];
ZF -> AW[label="2"];
ZF -> XL[label="4"];
ZF -> JF[label="8"];
ZF -> LU[label="8"];
ZF -> CI[label="4"];
ZF -> ED[label="9"];
ZF -> JS[label="2"];
ZF -> NE[label="8"];
ZF -> DI[label="10"];
ZF -> WP[label="2"];
ZF -> GO[label="4"];
ZF -> HP[label="6"];
DS -> OK[label="3"];
DS -> JY[label="11"];
DS -> FX[label="2"];
DS -> TD[label="8"];
DS -> VF[label="1"];
DS -> TT[label="10"];
DS -> KR[label="4"];
DS -> HN[label="6"];
DS -> MC[label="4"];
DS -> XM[label="7"];
DS -> XE[label="7"];
DS -> ZF[label="7"];
DS -> DS[label="0"];
DS -> AF[label="6"];
DS -> NL[label="7"];
DS -> LF[label="1"];
DS -> XZ[label="9"];
DS -> TQ[label="5"];
DS -> WO[label="2"];
DS -> TH[label="3"];
DS -> AA[label="6"];
DS -> KB[label="7"];
DS -> IV[label="3"];
DS -> MI[label="5"];
DS -> EX[label="7"];
DS -> ZZ[label="7"];
DS -> KF[label="7"];
DS -> PK[label="4"];
DS -> TR[label="2"];
DS -> YG[label="5"];
DS -> JL[label="8"];
DS -> VL[label="5"];
DS -> XP[label="7"];
DS -> TY[label="7"];
DS -> EM[label="6"];
DS -> BJ[label="7"];
DS -> JJ[label="5"];
DS -> RW[label="4"];
DS -> EI[label="7"];
DS -> SL[label="6"];
DS -> EE[label="5"];
DS -> WK[label="7"];
DS -> AW[label="7"];
DS -> XL[label="6"];
DS -> JF[label="6"];
DS -> LU[label="2"];
DS -> CI[label="5"];
DS -> ED[label="7"];
DS -> JS[label="6"];
DS -> NE[label="3"];
DS -> DI[label="3"];
DS -> WP[label="7"];
DS -> GO[label="3"];
DS -> HP[label="5"];
AF -> OK[label="5"];
AF -> JY[label="13"];
AF -> FX[label="4"];
AF -> TD[label="10"];
AF -> VF[label="7"];
AF -> TT[label="12"];
AF -> KR[label="2"];
AF -> HN[label="4"];
AF -> MC[label="6"];
AF -> XM[label="1"];
AF -> XE[label="1"];
AF -> ZF[label="3"];
AF -> DS[label="6"];
AF -> AF[label="0"];
AF -> NL[label="3"];
AF -> LF[label="5"];
AF -> XZ[label="11"];
AF -> TQ[label="3"];
AF -> WO[label="8"];
AF -> TH[label="7"];
AF -> AA[label="3"];
AF -> KB[label="4"];
AF -> IV[label="5"];
AF -> MI[label="7"];
AF -> EX[label="3"];
AF -> ZZ[label="4"];
AF -> KF[label="4"];
AF -> PK[label="6"];
AF -> TR[label="8"];
AF -> YG[label="5"];
AF -> JL[label="2"];
AF -> VL[label="3"];
AF -> XP[label="2"];
AF -> TY[label="4"];
AF -> EM[label="2"];
AF -> BJ[label="1"];
AF -> JJ[label="3"];
AF -> RW[label="6"];
AF -> EI[label="4"];
AF -> SL[label="4"];
AF -> EE[label="6"];
AF -> WK[label="2"];
AF -> AW[label="1"];
AF -> XL[label="5"];
AF -> JF[label="8"];
AF -> LU[label="8"];
AF -> CI[label="1"];
AF -> ED[label="9"];
AF -> JS[label="3"];
AF -> NE[label="7"];
AF -> DI[label="9"];
AF -> WP[label="3"];
AF -> GO[label="3"];
AF -> HP[label="5"];
NL -> OK[label="6"];
NL -> JY[label="12"];
NL -> FX[label="5"];
NL -> TD[label="9"];
NL -> VF[label="8"];
NL -> TT[label="11"];
NL -> KR[label="3"];
NL -> HN[label="3"];
NL -> MC[label="5"];
NL -> XM[label="4"];
NL -> XE[label="4"];
NL -> ZF[label="2"];
NL -> DS[label="7"];
NL -> AF[label="3"];
NL -> NL[label="0"];
NL -> LF[label="6"];
NL -> XZ[label="10"];
NL -> TQ[label="3"];
NL -> WO[label="9"];
NL -> TH[label="6"];
NL -> AA[label="2"];
NL -> KB[label="3"];
NL -> IV[label="6"];
NL -> MI[label="6"];
NL -> EX[label="6"];
NL -> ZZ[label="5"];
NL -> KF[label="1"];
NL -> PK[label="7"];
NL -> TR[label="9"];
NL -> YG[label="4"];
NL -> JL[label="5"];
NL -> VL[label="4"];
NL -> XP[label="3"];
NL -> TY[label="3"];
NL -> EM[label="1"];
NL -> BJ[label="4"];
NL -> JJ[label="2"];
NL -> RW[label="7"];
NL -> EI[label="3"];
NL -> SL[label="7"];
NL -> EE[label="5"];
NL -> WK[label="5"];
NL -> AW[label="2"];
NL -> XL[label="4"];
NL -> JF[label="7"];
NL -> LU[label="7"];
NL -> CI[label="4"];
NL -> ED[label="8"];
NL -> JS[label="4"];
NL -> NE[label="8"];
NL -> DI[label="10"];
NL -> WP[label="2"];
NL -> GO[label="4"];
NL -> HP[label="8"];
LF -> OK[label="2"];
LF -> JY[label="12"];
LF -> FX[label="1"];
LF -> TD[label="9"];
LF -> VF[label="2"];
LF -> TT[label="11"];
LF -> KR[label="3"];
LF -> HN[label="6"];
LF -> MC[label="5"];
LF -> XM[label="6"];
LF -> XE[label="6"];
LF -> ZF[label="6"];
LF -> DS[label="1"];
LF -> AF[label="5"];
LF -> NL[label="6"];
LF -> LF[label="0"];
LF -> XZ[label="10"];
LF -> TQ[label="4"];
LF -> WO[label="3"];
LF -> TH[label="4"];
LF -> AA[label="5"];
LF -> KB[label="7"];
LF -> IV[label="2"];
LF -> MI[label="6"];
LF -> EX[label="6"];
LF -> ZZ[label="6"];
LF -> KF[label="6"];
LF -> PK[label="3"];
LF -> TR[label="3"];
LF -> YG[label="6"];
LF -> JL[label="7"];
LF -> VL[label="4"];
LF -> XP[label="6"];
LF -> TY[label="6"];
LF -> EM[label="5"];
LF -> BJ[label="6"];
LF -> JJ[label="4"];
LF -> RW[label="3"];
LF -> EI[label="6"];
LF -> SL[label="5"];
LF -> EE[label="6"];
LF -> WK[label="6"];
LF -> AW[label="6"];
LF -> XL[label="7"];
LF -> JF[label="7"];
LF -> LU[label="3"];
LF -> CI[label="4"];
LF -> ED[label="8"];
LF -> JS[label="5"];
LF -> NE[label="4"];
LF -> DI[label="4"];
LF -> WP[label="6"];
LF -> GO[label="2"];
LF -> HP[label="4"];
XZ -> OK[label="12"];
XZ -> JY[label="2"];
XZ -> FX[label="11"];
XZ -> TD[label="1"];
XZ -> VF[label="8"];
XZ -> TT[label="1"];
XZ -> KR[label="10"];
XZ -> HN[label="7"];
XZ -> MC[label="5"];
XZ -> XM[label="12"];
XZ -> XE[label="10"];
XZ -> ZF[label="11"];
XZ -> DS[label="9"];
XZ -> AF[label="11"];
XZ -> NL[label="10"];
XZ -> LF[label="10"];
XZ -> XZ[label="0"];
XZ -> TQ[label="9"];
XZ -> WO[label="9"];
XZ -> TH[label="6"];
XZ -> AA[label="8"];
XZ -> KB[label="8"];
XZ -> IV[label="12"];
XZ -> MI[label="4"];
XZ -> EX[label="12"];
XZ -> ZZ[label="11"];
XZ -> KF[label="9"];
XZ -> PK[label="13"];
XZ -> TR[label="9"];
XZ -> YG[label="6"];
XZ -> JL[label="13"];
XZ -> VL[label="11"];
XZ -> XP[label="9"];
XZ -> TY[label="9"];
XZ -> EM[label="10"];
XZ -> BJ[label="12"];
XZ -> JJ[label="11"];
XZ -> RW[label="11"];
XZ -> EI[label="11"];
XZ -> SL[label="13"];
XZ -> EE[label="6"];
XZ -> WK[label="11"];
XZ -> AW[label="11"];
XZ -> XL[label="7"];
XZ -> JF[label="3"];
XZ -> LU[label="7"];
XZ -> CI[label="11"];
XZ -> ED[label="2"];
XZ -> JS[label="10"];
XZ -> NE[label="10"];
XZ -> DI[label="10"];
XZ -> WP[label="9"];
XZ -> GO[label="11"];
XZ -> HP[label="14"];
TQ -> OK[label="4"];
TQ -> JY[label="11"];
TQ -> FX[label="3"];
TQ -> TD[label="8"];
TQ -> VF[label="6"];
TQ -> TT[label="10"];
TQ -> KR[label="1"];
TQ -> HN[label="2"];
TQ -> MC[label="4"];
TQ -> XM[label="4"];
TQ -> XE[label="3"];
TQ -> ZF[label="4"];
TQ -> DS[label="5"];
TQ -> AF[label="3"];
TQ -> NL[label="3"];
TQ -> LF[label="4"];
TQ -> XZ[label="9"];
TQ -> TQ[label="0"];
TQ -> WO[label="7"];
TQ -> TH[label="5"];
TQ -> AA[label="1"];
TQ -> KB[label="5"];
TQ -> IV[label="4"];
TQ -> MI[label="5"];
TQ -> EX[label="5"];
TQ -> ZZ[label="4"];
TQ -> KF[label="2"];
TQ -> PK[label="5"];
TQ -> TR[label="7"];
TQ -> YG[label="3"];
TQ -> JL[label="5"];
TQ -> VL[label="2"];
TQ -> XP[label="2"];
TQ -> TY[label="2"];
TQ -> EM[label="3"];
TQ -> BJ[label="4"];
TQ -> JJ[label="2"];
TQ -> RW[label="5"];
TQ -> EI[label="4"];
TQ -> SL[label="6"];
TQ -> EE[label="5"];
TQ -> WK[label="4"];
TQ -> AW[label="4"];
TQ -> XL[label="6"];
TQ -> JF[label="6"];
TQ -> LU[label="6"];
TQ -> CI[label="2"];
TQ -> ED[label="7"];
TQ -> JS[label="3"];
TQ -> NE[label="6"];
TQ -> DI[label="8"];
TQ -> WP[label="4"];
TQ -> GO[label="2"];
TQ -> HP[label="6"];
WO -> OK[label="3"];
WO -> JY[label="11"];
WO -> FX[label="4"];
WO -> TD[label="8"];
WO -> VF[label="1"];
WO -> TT[label="10"];
WO -> KR[label="6"];
WO -> HN[label="6"];
WO -> MC[label="4"];
WO -> XM[label="9"];
WO -> XE[label="9"];
WO -> ZF[label="9"];
WO -> DS[label="2"];
WO -> AF[label="8"];
WO -> NL[label="9"];
WO -> LF[label="3"];
WO -> XZ[label="9"];
WO -> TQ[label="7"];
WO -> WO[label="0"];
WO -> TH[label="3"];
WO -> AA[label="7"];
WO -> KB[label="7"];
WO -> IV[label="5"];
WO -> MI[label="5"];
WO -> EX[label="9"];
WO -> ZZ[label="9"];
WO -> KF[label="8"];
WO -> PK[label="6"];
WO -> TR[label="2"];
WO -> YG[label="5"];
WO -> JL[label="10"];
WO -> VL[label="7"];
WO -> XP[label="8"];
WO -> TY[label="8"];
WO -> EM[label="8"];
WO -> BJ[label="9"];
WO -> JJ[label="7"];
WO -> RW[label="2"];
WO -> EI[label="9"];
WO -> SL[label="8"];
WO -> EE[label="5"];
WO -> WK[label="9"];
WO -> AW[label="9"];
WO -> XL[label="6"];
WO -> JF[label="6"];
WO -> LU[label="2"];
WO -> CI[label="7"];
WO -> ED[label="7"];
WO -> JS[label="8"];
WO -> NE[label="1"];
WO -> DI[label="3"];
WO -> WP[label="8"];
WO -> GO[label="5"];
WO -> HP[label="7"];
TH -> OK[label="6"];
TH -> JY[label="8"];
TH -> FX[label="5"];
TH -> TD[label="5"];
TH -> VF[label="2"];
TH -> TT[label="7"];
TH -> KR[label="6"];
TH -> HN[label="3"];
TH -> MC[label="1"];
TH -> XM[label="8"];
TH -> XE[label="6"];
TH -> ZF[label="7"];
TH -> DS[label="3"];
TH -> AF[label="7"];
TH -> NL[label="6"];
TH -> LF[label="4"];
TH -> XZ[label="6"];
TH -> TQ[label="5"];
TH -> WO[label="3"];
TH -> TH[label="0"];
TH -> AA[label="4"];
TH -> KB[label="4"];
TH -> IV[label="6"];
TH -> MI[label="2"];
TH -> EX[label="8"];
TH -> ZZ[label="7"];
TH -> KF[label="5"];
TH -> PK[label="7"];
TH -> TR[label="3"];
TH -> YG[label="2"];
TH -> JL[label="9"];
TH -> VL[label="7"];
TH -> XP[label="5"];
TH -> TY[label="5"];
TH -> EM[label="6"];
TH -> BJ[label="8"];
TH -> JJ[label="7"];
TH -> RW[label="5"];
TH -> EI[label="7"];
TH -> SL[label="9"];
TH -> EE[label="2"];
TH -> WK[label="7"];
TH -> AW[label="7"];
TH -> XL[label="3"];
TH -> JF[label="3"];
TH -> LU[label="1"];
TH -> CI[label="7"];
TH -> ED[label="4"];
TH -> JS[label="6"];
TH -> NE[label="4"];
TH -> DI[label="4"];
TH -> WP[label="5"];
TH -> GO[label="6"];
TH -> HP[label="8"];
AA -> OK[label="5"];
AA -> JY[label="10"];
AA -> FX[label="4"];
AA -> TD[label="7"];
AA -> VF[label="6"];
AA -> TT[label="9"];
AA -> KR[label="2"];
AA -> HN[label="1"];
AA -> MC[label="3"];
AA -> XM[label="4"];
AA -> XE[label="2"];
AA -> ZF[label="4"];
AA -> DS[label="6"];
AA -> AF[label="3"];
AA -> NL[label="2"];
AA -> LF[label="5"];
AA -> XZ[label="8"];
AA -> TQ[label="1"];
AA -> WO[label="7"];
AA -> TH[label="4"];
AA -> AA[label="0"];
AA -> KB[label="5"];
AA -> IV[label="5"];
AA -> MI[label="4"];
AA -> EX[label="4"];
AA -> ZZ[label="3"];
AA -> KF[label="1"];
AA -> PK[label="6"];
AA -> TR[label="7"];
AA -> YG[label="2"];
AA -> JL[label="5"];
AA -> VL[label="3"];
AA -> XP[label="1"];
AA -> TY[label="1"];
AA -> EM[label="3"];
AA -> BJ[label="4"];
AA -> JJ[label="3"];
AA -> RW[label="6"];
AA -> EI[label="3"];
AA -> SL[label="5"];
AA -> EE[label="4"];
AA -> WK[label="3"];
AA -> AW[label="4"];
AA -> XL[label="5"];
AA -> JF[label="5"];
AA -> LU[label="5"];
AA -> CI[label="3"];
AA -> ED[label="6"];
AA -> JS[label="2"];
AA -> NE[label="7"];
AA -> DI[label="8"];
AA -> WP[label="4"];
AA -> GO[label="3"];
AA -> HP[label="6"];
KB -> OK[label="7"];
KB -> JY[label="10"];
KB -> FX[label="6"];
KB -> TD[label="7"];
KB -> VF[label="6"];
KB -> TT[label="9"];
KB -> KR[label="4"];
KB -> HN[label="5"];
KB -> MC[label="3"];
KB -> XM[label="5"];
KB -> XE[label="5"];
KB -> ZF[label="3"];
KB -> DS[label="7"];
KB -> AF[label="4"];
KB -> NL[label="3"];
KB -> LF[label="7"];
KB -> XZ[label="8"];
KB -> TQ[label="5"];
KB -> WO[label="7"];
KB -> TH[label="4"];
KB -> AA[label="5"];
KB -> KB[label="0"];
KB -> IV[label="7"];
KB -> MI[label="4"];
KB -> EX[label="7"];
KB -> ZZ[label="6"];
KB -> KF[label="4"];
KB -> PK[label="8"];
KB -> TR[label="7"];
KB -> YG[label="4"];
KB -> JL[label="6"];
KB -> VL[label="5"];
KB -> XP[label="6"];
KB -> TY[label="6"];
KB -> EM[label="2"];
KB -> BJ[label="5"];
KB -> JJ[label="3"];
KB -> RW[label="8"];
KB -> EI[label="4"];
KB -> SL[label="8"];
KB -> EE[label="2"];
KB -> WK[label="6"];
KB -> AW[label="3"];
KB -> XL[label="1"];
KB -> JF[label="5"];
KB -> LU[label="5"];
KB -> CI[label="5"];
KB -> ED[label="6"];
KB -> JS[label="5"];
KB -> NE[label="8"];
KB -> DI[label="8"];
KB -> WP[label="1"];
KB -> GO[label="5"];
KB -> HP[label="9"];
IV -> OK[label="2"];
IV -> JY[label="14"];
IV -> FX[label="1"];
IV -> TD[label="11"];
IV -> VF[label="4"];
IV -> TT[label="13"];
IV -> KR[label="3"];
IV -> HN[label="6"];
IV -> MC[label="7"];
IV -> XM[label="6"];
IV -> XE[label="6"];
IV -> ZF[label="6"];
IV -> DS[label="3"];
IV -> AF[label="5"];
IV -> NL[label="6"];
IV -> LF[label="2"];
IV -> XZ[label="12"];
IV -> TQ[label="4"];
IV -> WO[label="5"];
IV -> TH[label="6"];
IV -> AA[label="5"];
IV -> KB[label="7"];
IV -> IV[label="0"];
IV -> MI[label="8"];
IV -> EX[label="4"];
IV -> ZZ[label="5"];
IV -> KF[label="6"];
IV -> PK[label="1"];
IV -> TR[label="5"];
IV -> YG[label="7"];
IV -> JL[label="5"];
IV -> VL[label="4"];
IV -> XP[label="6"];
IV -> TY[label="6"];
IV -> EM[label="5"];
IV -> BJ[label="6"];
IV -> JJ[label="4"];
IV -> RW[label="3"];
IV -> EI[label="6"];
IV -> SL[label="3"];
IV -> EE[label="8"];
IV -> WK[label="6"];
IV -> AW[label="6"];
IV -> XL[label="8"];
IV -> JF[label="9"];
IV -> LU[label="5"];
IV -> CI[label="4"];
IV -> ED[label="10"];
IV -> JS[label="5"];
IV -> NE[label="4"];
IV -> DI[label="6"];
IV -> WP[label="6"];
IV -> GO[label="2"];
IV -> HP[label="2"];
MI -> OK[label="8"];
MI -> JY[label="6"];
MI -> FX[label="7"];
MI -> TD[label="3"];
MI -> VF[label="4"];
MI -> TT[label="5"];
MI -> KR[label="6"];
MI -> HN[label="3"];
MI -> MC[label="1"];
MI -> XM[label="8"];
MI -> XE[label="6"];
MI -> ZF[label="7"];
MI -> DS[label="5"];
MI -> AF[label="7"];
MI -> NL[label="6"];
MI -> LF[label="6"];
MI -> XZ[label="4"];
MI -> TQ[label="5"];
MI -> WO[label="5"];
MI -> TH[label="2"];
MI -> AA[label="4"];
MI -> KB[label="4"];
MI -> IV[label="8"];
MI -> MI[label="0"];
MI -> EX[label="8"];
MI -> ZZ[label="7"];
MI -> KF[label="5"];
MI -> PK[label="9"];
MI -> TR[label="5"];
MI -> YG[label="2"];
MI -> JL[label="9"];
MI -> VL[label="7"];
MI -> XP[label="5"];
MI -> TY[label="5"];
MI -> EM[label="6"];
MI -> BJ[label="8"];
MI -> JJ[label="7"];
MI -> RW[label="7"];
MI -> EI[label="7"];
MI -> SL[label="9"];
MI -> EE[label="2"];
MI -> WK[label="7"];
MI -> AW[label="7"];
MI -> XL[label="3"];
MI -> JF[label="1"];
MI -> LU[label="3"];
MI -> CI[label="7"];
MI -> ED[label="2"];
MI -> JS[label="6"];
MI -> NE[label="6"];
MI -> DI[label="6"];
MI -> WP[label="5"];
MI -> GO[label="7"];
MI -> HP[label="10"];
EX -> OK[label="6"];
EX -> JY[label="14"];
EX -> FX[label="5"];
EX -> TD[label="11"];
EX -> VF[label="8"];
EX -> TT[label="13"];
EX -> KR[label="4"];
EX -> HN[label="5"];
EX -> MC[label="7"];
EX -> XM[label="2"];
EX -> XE[label="4"];
EX -> ZF[label="4"];
EX -> DS[label="7"];
EX -> AF[label="3"];
EX -> NL[label="6"];
EX -> LF[label="6"];
EX -> XZ[label="12"];
EX -> TQ[label="5"];
EX -> WO[label="9"];
EX -> TH[label="8"];
EX -> AA[label="4"];
EX -> KB[label="7"];
EX -> IV[label="4"];
EX -> MI[label="8"];
EX -> EX[label="0"];
EX -> ZZ[label="1"];
EX -> KF[label="5"];
EX -> PK[label="3"];
EX -> TR[label="9"];
EX -> YG[label="6"];
EX -> JL[label="1"];
EX -> VL[label="3"];
EX -> XP[label="5"];
EX -> TY[label="3"];
EX -> EM[label="5"];
EX -> BJ[label="4"];
EX -> JJ[label="5"];
EX -> RW[label="7"];
EX -> EI[label="3"];
EX -> SL[label="1"];
EX -> EE[label="8"];
EX -> WK[label="3"];
EX -> AW[label="4"];
EX -> XL[label="8"];
EX -> JF[label="9"];
EX -> LU[label="9"];
EX -> CI[label="4"];
EX -> ED[label="10"];
EX -> JS[label="2"];
EX -> NE[label="8"];
EX -> DI[label="10"];
EX -> WP[label="6"];
EX -> GO[label="5"];
EX -> HP[label="2"];
ZZ -> OK[label="6"];
ZZ -> JY[label="13"];
ZZ -> FX[label="5"];
ZZ -> TD[label="10"];
ZZ -> VF[label="8"];
ZZ -> TT[label="12"];
ZZ -> KR[label="3"];
ZZ -> HN[label="4"];
ZZ -> MC[label="6"];
ZZ -> XM[label="3"];
ZZ -> XE[label="5"];
ZZ -> ZF[label="3"];
ZZ -> DS[label="7"];
ZZ -> AF[label="4"];
ZZ -> NL[label="5"];
ZZ -> LF[label="6"];
ZZ -> XZ[label="11"];
ZZ -> TQ[label="4"];
ZZ -> WO[label="9"];
ZZ -> TH[label="7"];
ZZ -> AA[label="3"];
ZZ -> KB[label="6"];
ZZ -> IV[label="5"];
ZZ -> MI[label="7"];
ZZ -> EX[label="1"];
ZZ -> ZZ[label="0"];
ZZ -> KF[label="4"];
ZZ -> PK[label="4"];
ZZ -> TR[label="9"];
ZZ -> YG[label="5"];
ZZ -> JL[label="2"];
ZZ -> VL[label="2"];
ZZ -> XP[label="4"];
ZZ -> TY[label="2"];
ZZ -> EM[label="4"];
ZZ -> BJ[label="3"];
ZZ -> JJ[label="4"];
ZZ -> RW[label="7"];
ZZ -> EI[label="2"];
ZZ -> SL[label="2"];
ZZ -> EE[label="7"];
ZZ -> WK[label="2"];
ZZ -> AW[label="5"];
ZZ -> XL[label="7"];
ZZ -> JF[label="8"];
ZZ -> LU[label="8"];
ZZ -> CI[label="4"];
ZZ -> ED[label="9"];
ZZ -> JS[label="1"];
ZZ -> NE[label="8"];
ZZ -> DI[label="10"];
ZZ -> WP[label="5"];
ZZ -> GO[label="4"];
ZZ -> HP[label="3"];
KF -> OK[label="6"];
KF -> JY[label="11"];
KF -> FX[label="5"];
KF -> TD[label="8"];
KF -> VF[label="7"];
KF -> TT[label="10"];
KF -> KR[label="3"];
KF -> HN[label="2"];
KF -> MC[label="4"];
KF -> XM[label="5"];
KF -> XE[label="3"];
KF -> ZF[label="3"];
KF -> DS[label="7"];
KF -> AF[label="4"];
KF -> NL[label="1"];
KF -> LF[label="6"];
KF -> XZ[label="9"];
KF -> TQ[label="2"];
KF -> WO[label="8"];
KF -> TH[label="5"];
KF -> AA[label="1"];
KF -> KB[label="4"];
KF -> IV[label="6"];
KF -> MI[label="5"];
KF -> EX[label="5"];
KF -> ZZ[label="4"];
KF -> KF[label="0"];
KF -> PK[label="7"];
KF -> TR[label="8"];
KF -> YG[label="3"];
KF -> JL[label="6"];
KF -> VL[label="4"];
KF -> XP[label="2"];
KF -> TY[label="2"];
KF -> EM[label="2"];
KF -> BJ[label="5"];
KF -> JJ[label="3"];
KF -> RW[label="7"];
KF -> EI[label="4"];
KF -> SL[label="6"];
KF -> EE[label="5"];
KF -> WK[label="4"];
KF -> AW[label="3"];
KF -> XL[label="5"];
KF -> JF[label="6"];
KF -> LU[label="6"];
KF -> CI[label="4"];
KF -> ED[label="7"];
KF -> JS[label="3"];
KF -> NE[label="8"];
KF -> DI[label="9"];
KF -> WP[label="3"];
KF -> GO[label="4"];
KF -> HP[label="7"];
PK -> OK[label="3"];
PK -> JY[label="15"];
PK -> FX[label="2"];
PK -> TD[label="12"];
PK -> VF[label="5"];
PK -> TT[label="14"];
PK -> KR[label="4"];
PK -> HN[label="7"];
PK -> MC[label="8"];
PK -> XM[label="5"];
PK -> XE[label="7"];
PK -> ZF[label="7"];
PK -> DS[label="4"];
PK -> AF[label="6"];
PK -> NL[label="7"];
PK -> LF[label="3"];
PK -> XZ[label="13"];
PK -> TQ[label="5"];
PK -> WO[label="6"];
PK -> TH[label="7"];
PK -> AA[label="6"];
PK -> KB[label="8"];
PK -> IV[label="1"];
PK -> MI[label="9"];
PK -> EX[label="3"];
PK -> ZZ[label="4"];
PK -> KF[label="7"];
PK -> PK[label="0"];
PK -> TR[label="6"];
PK -> YG[label="8"];
PK -> JL[label="4"];
PK -> VL[label="5"];
PK -> XP[label="7"];
PK -> TY[label="6"];
PK -> EM[label="6"];
PK -> BJ[label="7"];
PK -> JJ[label="5"];
PK -> RW[label="4"];
PK -> EI[label="6"];
PK -> SL[label="2"];
PK -> EE[label="9"];
PK -> WK[label="6"];
PK -> AW[label="7"];
PK -> XL[label="9"];
PK -> JF[label="10"];
PK -> LU[label="6"];
PK -> CI[label="5"];
PK -> ED[label="11"];
PK -> JS[label="5"];
PK -> NE[label="5"];
PK -> DI[label="7"];
PK -> WP[label="7"];
PK -> GO[label="3"];
PK -> HP[label="1"];
TR -> OK[label="5"];
TR -> JY[label="11"];
TR -> FX[label="4"];
TR -> TD[label="8"];
TR -> VF[label="1"];
TR -> TT[label="10"];
TR -> KR[label="6"];
TR -> HN[label="6"];
TR -> MC[label="4"];
TR -> XM[label="9"];
TR -> XE[label="9"];
TR -> ZF[label="9"];
TR -> DS[label="2"];
TR -> AF[label="8"];
TR -> NL[label="9"];
TR -> LF[label="3"];
TR -> XZ[label="9"];
TR -> TQ[label="7"];
TR -> WO[label="2"];
TR -> TH[label="3"];
TR -> AA[label="7"];
TR -> KB[label="7"];
TR -> IV[label="5"];
TR -> MI[label="5"];
TR -> EX[label="9"];
TR -> ZZ[label="9"];
TR -> KF[label="8"];
TR -> PK[label="6"];
TR -> TR[label="0"];
TR -> YG[label="5"];
TR -> JL[label="10"];
TR -> VL[label="7"];
TR -> XP[label="8"];
TR -> TY[label="8"];
TR -> EM[label="8"];
TR -> BJ[label="9"];
TR -> JJ[label="7"];
TR -> RW[label="4"];
TR -> EI[label="9"];
TR -> SL[label="8"];
TR -> EE[label="5"];
TR -> WK[label="9"];
TR -> AW[label="9"];
TR -> XL[label="6"];
TR -> JF[label="6"];
TR -> LU[label="2"];
TR -> CI[label="7"];
TR -> ED[label="7"];
TR -> JS[label="8"];
TR -> NE[label="3"];
TR -> DI[label="1"];
TR -> WP[label="8"];
TR -> GO[label="5"];
TR -> HP[label="7"];
YG -> OK[label="7"];
YG -> JY[label="8"];
YG -> FX[label="6"];
YG -> TD[label="5"];
YG -> VF[label="4"];
YG -> TT[label="7"];
YG -> KR[label="4"];
YG -> HN[label="1"];
YG -> MC[label="1"];
YG -> XM[label="6"];
YG -> XE[label="4"];
YG -> ZF[label="6"];
YG -> DS[label="5"];
YG -> AF[label="5"];
YG -> NL[label="4"];
YG -> LF[label="6"];
YG -> XZ[label="6"];
YG -> TQ[label="3"];
YG -> WO[label="5"];
YG -> TH[label="2"];
YG -> AA[label="2"];
YG -> KB[label="4"];
YG -> IV[label="7"];
YG -> MI[label="2"];
YG -> EX[label="6"];
YG -> ZZ[label="5"];
YG -> KF[label="3"];
YG -> PK[label="8"];
YG -> TR[label="5"];
YG -> YG[label="0"];
YG -> JL[label="7"];
YG -> VL[label="5"];
YG -> XP[label="3"];
YG -> TY[label="3"];
YG -> EM[label="5"];
YG -> BJ[label="6"];
YG -> JJ[label="5"];
YG -> RW[label="7"];
YG -> EI[label="5"];
YG -> SL[label="7"];
YG -> EE[label="2"];
YG -> WK[label="5"];
YG -> AW[label="6"];
YG -> XL[label="3"];
YG -> JF[label="3"];
YG -> LU[label="3"];
YG -> CI[label="5"];
YG -> ED[label="4"];
YG -> JS[label="4"];
YG -> NE[label="6"];
YG -> DI[label="6"];
YG -> WP[label="5"];
YG -> GO[label="5"];
YG -> HP[label="8"];
JL -> OK[label="7"];
JL -> JY[label="15"];
JL -> FX[label="6"];
JL -> TD[label="12"];
JL -> VF[label="9"];
JL -> TT[label="14"];
JL -> KR[label="4"];
JL -> HN[label="6"];
JL -> MC[label="8"];
JL -> XM[label="1"];
JL -> XE[label="3"];
JL -> ZF[label="5"];
JL -> DS[label="8"];
JL -> AF[label="2"];
JL -> NL[label="5"];
JL -> LF[label="7"];
JL -> XZ[label="13"];
JL -> TQ[label="5"];
JL -> WO[label="10"];
JL -> TH[label="9"];
JL -> AA[label="5"];
JL -> KB[label="6"];
JL -> IV[label="5"];
JL -> MI[label="9"];
JL -> EX[label="1"];
JL -> ZZ[label="2"];
JL -> KF[label="6"];
JL -> PK[label="4"];
JL -> TR[label="10"];
JL -> YG[label="7"];
JL -> JL[label="0"];
JL -> VL[label="4"];
JL -> XP[label="4"];
JL -> TY[label="4"];
JL -> EM[label="4"];
JL -> BJ[label="3"];
JL -> JJ[label="5"];
JL -> RW[label="8"];
JL -> EI[label="4"];
JL -> SL[label="2"];
JL -> EE[label="8"];
JL -> WK[label="4"];
JL -> AW[label="3"];
JL -> XL[label="7"];
JL -> JF[label="10"];
JL -> LU[label="10"];
JL -> CI[label="3"];
JL -> ED[label="11"];
JL -> JS[label="3"];
JL -> NE[label="9"];
JL -> DI[label="11"];
JL -> WP[label="5"];
JL -> GO[label="5"];
JL -> HP[label="3"];
VL -> OK[label="4"];
VL -> JY[label="13"];
VL -> FX[label="3"];
VL -> TD[label="10"];
VL -> VF[label="6"];
VL -> TT[label="12"];
VL -> KR[label="1"];
VL -> HN[label="4"];
VL -> MC[label="6"];
VL -> XM[label="4"];
VL -> XE[label="4"];
VL -> ZF[label="3"];
VL -> DS[label="5"];
VL -> AF[label="3"];
VL -> NL[label="4"];
VL -> LF[label="4"];
VL -> XZ[label="11"];
VL -> TQ[label="2"];
VL -> WO[label="7"];
VL -> TH[label="7"];
VL -> AA[label="3"];
VL -> KB[label="5"];
VL -> IV[label="4"];
VL -> MI[label="7"];
VL -> EX[label="3"];
VL -> ZZ[label="2"];
VL -> KF[label="4"];
VL -> PK[label="5"];
VL -> TR[label="7"];
VL -> YG[label="5"];
VL -> JL[label="4"];
VL -> VL[label="0"];
VL -> XP[label="4"];
VL -> TY[label="2"];
VL -> EM[label="3"];
VL -> BJ[label="3"];
VL -> JJ[label="2"];
VL -> RW[label="5"];
VL -> EI[label="2"];
VL -> SL[label="4"];
VL -> EE[label="7"];
VL -> WK[label="2"];
VL -> AW[label="4"];
VL -> XL[label="6"];
VL -> JF[label="8"];
VL -> LU[label="7"];
VL -> CI[label="2"];
VL -> ED[label="9"];
VL -> JS[label="1"];
VL -> NE[label="6"];
VL -> DI[label="8"];
VL -> WP[label="4"];
VL -> GO[label="2"];
VL -> HP[label="5"];
XP -> OK[label="6"];
XP -> JY[label="11"];
XP -> FX[label="5"];
XP -> TD[label="8"];
XP -> VF[label="7"];
XP -> TT[label="10"];
XP -> KR[label="3"];
XP -> HN[label="2"];
XP -> MC[label="4"];
XP -> XM[label="3"];
XP -> XE[label="1"];
XP -> ZF[label="5"];
XP -> DS[label="7"];
XP -> AF[label="2"];
XP -> NL[label="3"];
XP -> LF[label="6"];
XP -> XZ[label="9"];
XP -> TQ[label="2"];
XP -> WO[label="8"];
XP -> TH[label="5"];
XP -> AA[label="1"];
XP -> KB[label="6"];
XP -> IV[label="6"];
XP -> MI[label="5"];
XP -> EX[label="5"];
XP -> ZZ[label="4"];
XP -> KF[label="2"];
XP -> PK[label="7"];
XP -> TR[label="8"];
XP -> YG[label="3"];
XP -> JL[label="4"];
XP -> VL[label="4"];
XP -> XP[label="0"];
XP -> TY[label="2"];
XP -> EM[label="4"];
XP -> BJ[label="3"];
XP -> JJ[label="4"];
XP -> RW[label="7"];
XP -> EI[label="4"];
XP -> SL[label="6"];
XP -> EE[label="5"];
XP -> WK[label="4"];
XP -> AW[label="3"];
XP -> XL[label="6"];
XP -> JF[label="6"];
XP -> LU[label="6"];
XP -> CI[label="3"];
XP -> ED[label="7"];
XP -> JS[label="3"];
XP -> NE[label="8"];
XP -> DI[label="9"];
XP -> WP[label="5"];
XP -> GO[label="4"];
XP -> HP[label="7"];
TY -> OK[label="6"];
TY -> JY[label="11"];
TY -> FX[label="5"];
TY -> TD[label="8"];
TY -> VF[label="7"];
TY -> TT[label="10"];
TY -> KR[label="3"];
TY -> HN[label="2"];
TY -> MC[label="4"];
TY -> XM[label="5"];
TY -> XE[label="3"];
TY -> ZF[label="3"];
TY -> DS[label="7"];
TY -> AF[label="4"];
TY -> NL[label="3"];
TY -> LF[label="6"];
TY -> XZ[label="9"];
TY -> TQ[label="2"];
TY -> WO[label="8"];
TY -> TH[label="5"];
TY -> AA[label="1"];
TY -> KB[label="6"];
TY -> IV[label="6"];
TY -> MI[label="5"];
TY -> EX[label="3"];
TY -> ZZ[label="2"];
TY -> KF[label="2"];
TY -> PK[label="6"];
TY -> TR[label="8"];
TY -> YG[label="3"];
TY -> JL[label="4"];
TY -> VL[label="2"];
TY -> XP[label="2"];
TY -> TY[label="0"];
TY -> EM[label="4"];
TY -> BJ[label="3"];
TY -> JJ[label="4"];
TY -> RW[label="7"];
TY -> EI[label="2"];
TY -> SL[label="4"];
TY -> EE[label="5"];
TY -> WK[label="2"];
TY -> AW[label="5"];
TY -> XL[label="6"];
TY -> JF[label="6"];
TY -> LU[label="6"];
TY -> CI[label="4"];
TY -> ED[label="7"];
TY -> JS[label="1"];
TY -> NE[label="8"];
TY -> DI[label="9"];
TY -> WP[label="5"];
TY -> GO[label="4"];
TY -> HP[label="5"];
EM -> OK[label="5"];
EM -> JY[label="12"];
EM -> FX[label="4"];
EM -> TD[label="9"];
EM -> VF[label="7"];
EM -> TT[label="11"];
EM -> KR[label="2"];
EM -> HN[label="4"];
EM -> MC[label="5"];
EM -> XM[label="3"];
EM -> XE[label="3"];
EM -> ZF[label="1"];
EM -> DS[label="6"];
EM -> AF[label="2"];
EM -> NL[label="1"];
EM -> LF[label="5"];
EM -> XZ[label="10"];
EM -> TQ[label="3"];
EM -> WO[label="8"];
EM -> TH[label="6"];
EM -> AA[label="3"];
EM -> KB[label="2"];
EM -> IV[label="5"];
EM -> MI[label="6"];
EM -> EX[label="5"];
EM -> ZZ[label="4"];
EM -> KF[label="2"];
EM -> PK[label="6"];
EM -> TR[label="8"];
EM -> YG[label="5"];
EM -> JL[label="4"];
EM -> VL[label="3"];
EM -> XP[label="4"];
EM -> TY[label="4"];
EM -> EM[label="0"];
EM -> BJ[label="3"];
EM -> JJ[label="1"];
EM -> RW[label="6"];
EM -> EI[label="2"];
EM -> SL[label="6"];
EM -> EE[label="4"];
EM -> WK[label="4"];
EM -> AW[label="1"];
EM -> XL[label="3"];
EM -> JF[label="7"];
EM -> LU[label="7"];
EM -> CI[label="3"];
EM -> ED[label="8"];
EM -> JS[label="3"];
EM -> NE[label="7"];
EM -> DI[label="9"];
EM -> WP[label="1"];
EM -> GO[label="3"];
EM -> HP[label="7"];
BJ -> OK[label="6"];
BJ -> JY[label="14"];
BJ -> FX[label="5"];
BJ -> TD[label="11"];
BJ -> VF[label="8"];
BJ -> TT[label="13"];
BJ -> KR[label="3"];
BJ -> HN[label="5"];
BJ -> MC[label="7"];
BJ -> XM[label="2"];
BJ -> XE[label="2"];
BJ -> ZF[label="4"];
BJ -> DS[label="7"];
BJ -> AF[label="1"];
BJ -> NL[label="4"];
BJ -> LF[label="6"];
BJ -> XZ[label="12"];
BJ -> TQ[label="4"];
BJ -> WO[label="9"];
BJ -> TH[label="8"];
BJ -> AA[label="4"];
BJ -> KB[label="5"];
BJ -> IV[label="6"];
BJ -> MI[label="8"];
BJ -> EX[label="4"];
BJ -> ZZ[label="3"];
BJ -> KF[label="5"];
BJ -> PK[label="7"];
BJ -> TR[label="9"];
BJ -> YG[label="6"];
BJ -> JL[label="3"];
BJ -> VL[label="3"];
BJ -> XP[label="3"];
BJ -> TY[label="3"];
BJ -> EM[label="3"];
BJ -> BJ[label="0"];
BJ -> JJ[label="4"];
BJ -> RW[label="7"];
BJ -> EI[label="3"];
BJ -> SL[label="5"];
BJ -> EE[label="7"];
BJ -> WK[label="1"];
BJ -> AW[label="2"];
BJ -> XL[label="6"];
BJ -> JF[label="9"];
BJ -> LU[label="9"];
BJ -> CI[label="2"];
BJ -> ED[label="10"];
BJ -> JS[label="2"];
BJ -> NE[label="8"];
BJ -> DI[label="10"];
BJ -> WP[label="4"];
BJ -> GO[label="4"];
BJ -> HP[label="6"];
JJ -> OK[label="4"];
JJ -> JY[label="13"];
JJ -> FX[label="3"];
JJ -> TD[label="10"];
JJ -> VF[label="6"];
JJ -> TT[label="12"];
JJ -> KR[label="1"];
JJ -> HN[label="4"];
JJ -> MC[label="6"];
JJ -> XM[label="4"];
JJ -> XE[label="4"];
JJ -> ZF[label="2"];
JJ -> DS[label="5"];
JJ -> AF[label="3"];
JJ -> NL[label="2"];
JJ -> LF[label="4"];
JJ -> XZ[label="11"];
JJ -> TQ[label="2"];
JJ -> WO[label="7"];
JJ -> TH[label="7"];
JJ -> AA[label="3"];
JJ -> KB[label="3"];
JJ -> IV[label="4"];
JJ -> MI[label="7"];
JJ -> EX[label="5"];
JJ -> ZZ[label="4"];
JJ -> KF[label="3"];
JJ -> PK[label="5"];
JJ -> TR[label="7"];
JJ -> YG[label="5"];
JJ -> JL[label="5"];
JJ -> VL[label="2"];
JJ -> XP[label="4"];
JJ -> TY[label="4"];
JJ -> EM[label="1"];
JJ -> BJ[label="4"];
JJ -> JJ[label="0"];
JJ -> RW[label="5"];
JJ -> EI[label="3"];
JJ -> SL[label="6"];
JJ -> EE[label="5"];
JJ -> WK[label="4"];
JJ -> AW[label="2"];
JJ -> XL[label="4"];
JJ -> JF[label="8"];
JJ -> LU[label="7"];
JJ -> CI[label="2"];
JJ -> ED[label="9"];
JJ -> JS[label="3"];
JJ -> NE[label="6"];
JJ -> DI[label="8"];
JJ -> WP[label="2"];
JJ -> GO[label="2"];
JJ -> HP[label="6"];
RW -> OK[label="1"];
RW -> JY[label="13"];
RW -> FX[label="2"];
RW -> TD[label="10"];
RW -> VF[label="3"];
RW -> TT[label="12"];
RW -> KR[label="4"];
RW -> HN[label="7"];
RW -> MC[label="6"];
RW -> XM[label="7"];
RW -> XE[label="7"];
RW -> ZF[label="7"];
RW -> DS[label="4"];
RW -> AF[label="6"];
RW -> NL[label="7"];
RW -> LF[label="3"];
RW -> XZ[label="11"];
RW -> TQ[label="5"];
RW -> WO[label="2"];
RW -> TH[label="5"];
RW -> AA[label="6"];
RW -> KB[label="8"];
RW -> IV[label="3"];
RW -> MI[label="7"];
RW -> EX[label="7"];
RW -> ZZ[label="7"];
RW -> KF[label="7"];
RW -> PK[label="4"];
RW -> TR[label="4"];
RW -> YG[label="7"];
RW -> JL[label="8"];
RW -> VL[label="5"];
RW -> XP[label="7"];
RW -> TY[label="7"];
RW -> EM[label="6"];
RW -> BJ[label="7"];
RW -> JJ[label="5"];
RW -> RW[label="0"];
RW -> EI[label="7"];
RW -> SL[label="6"];
RW -> EE[label="7"];
RW -> WK[label="7"];
RW -> AW[label="7"];
RW -> XL[label="8"];
RW -> JF[label="8"];
RW -> LU[label="4"];
RW -> CI[label="5"];
RW -> ED[label="9"];
RW -> JS[label="6"];
RW -> NE[label="1"];
RW -> DI[label="5"];
RW -> WP[label="7"];
RW -> GO[label="3"];
RW -> HP[label="5"];
EI -> OK[label="6"];
EI -> JY[label="13"];
EI -> FX[label="5"];
EI -> TD[label="10"];
EI -> VF[label="8"];
EI -> TT[label="12"];
EI -> KR[label="3"];
EI -> HN[label="4"];
EI -> MC[label="6"];
EI -> XM[label="5"];
EI -> XE[label="5"];
EI -> ZF[label="1"];
EI -> DS[label="7"];
EI -> AF[label="4"];
EI -> NL[label="3"];
EI -> LF[label="6"];
EI -> XZ[label="11"];
EI -> TQ[label="4"];
EI -> WO[label="9"];
EI -> TH[label="7"];
EI -> AA[label="3"];
EI -> KB[label="4"];
EI -> IV[label="6"];
EI -> MI[label="7"];
EI -> EX[label="3"];
EI -> ZZ[label="2"];
EI -> KF[label="4"];
EI -> PK[label="6"];
EI -> TR[label="9"];
EI -> YG[label="5"];
EI -> JL[label="4"];
EI -> VL[label="2"];
EI -> XP[label="4"];
EI -> TY[label="2"];
EI -> EM[label="2"];
EI -> BJ[label="3"];
EI -> JJ[label="3"];
EI -> RW[label="7"];
EI -> EI[label="0"];
EI -> SL[label="4"];
EI -> EE[label="6"];
EI -> WK[label="2"];
EI -> AW[label="3"];
EI -> XL[label="5"];
EI -> JF[label="8"];
EI -> LU[label="8"];
EI -> CI[label="4"];
EI -> ED[label="9"];
EI -> JS[label="1"];
EI -> NE[label="8"];
EI -> DI[label="10"];
EI -> WP[label="3"];
EI -> GO[label="4"];
EI -> HP[label="5"];
SL -> OK[label="5"];
SL -> JY[label="15"];
SL -> FX[label="4"];
SL -> TD[label="12"];
SL -> VF[label="7"];
SL -> TT[label="14"];
SL -> KR[label="5"];
SL -> HN[label="6"];
SL -> MC[label="8"];
SL -> XM[label="3"];
SL -> XE[label="5"];
SL -> ZF[label="5"];
SL -> DS[label="6"];
SL -> AF[label="4"];
SL -> NL[label="7"];
SL -> LF[label="5"];
SL -> XZ[label="13"];
SL -> TQ[label="6"];
SL -> WO[label="8"];
SL -> TH[label="9"];
SL -> AA[label="5"];
SL -> KB[label="8"];
SL -> IV[label="3"];
SL -> MI[label="9"];
SL -> EX[label="1"];
SL -> ZZ[label="2"];
SL -> KF[label="6"];
SL -> PK[label="2"];
SL -> TR[label="8"];
SL -> YG[label="7"];
SL -> JL[label="2"];
SL -> VL[label="4"];
SL -> XP[label="6"];
SL -> TY[label="4"];
SL -> EM[label="6"];
SL -> BJ[label="5"];
SL -> JJ[label="6"];
SL -> RW[label="6"];
SL -> EI[label="4"];
SL -> SL[label="0"];
SL -> EE[label="9"];
SL -> WK[label="4"];
SL -> AW[label="5"];
SL -> XL[label="9"];
SL -> JF[label="10"];
SL -> LU[label="8"];
SL -> CI[label="5"];
SL -> ED[label="11"];
SL -> JS[label="3"];
SL -> NE[label="7"];
SL -> DI[label="9"];
SL -> WP[label="7"];
SL -> GO[label="5"];
SL -> HP[label="1"];
EE -> OK[label="8"];
EE -> JY[label="8"];
EE -> FX[label="7"];
EE -> TD[label="5"];
EE -> VF[label="4"];
EE -> TT[label="7"];
EE -> KR[label="6"];
EE -> HN[label="3"];
EE -> MC[label="1"];
EE -> XM[label="7"];
EE -> XE[label="6"];
EE -> ZF[label="5"];
EE -> DS[label="5"];
EE -> AF[label="6"];
EE -> NL[label="5"];
EE -> LF[label="6"];
EE -> XZ[label="6"];
EE -> TQ[label="5"];
EE -> WO[label="5"];
EE -> TH[label="2"];
EE -> AA[label="4"];
EE -> KB[label="2"];
EE -> IV[label="8"];
EE -> MI[label="2"];
EE -> EX[label="8"];
EE -> ZZ[label="7"];
EE -> KF[label="5"];
EE -> PK[label="9"];
EE -> TR[label="5"];
EE -> YG[label="2"];
EE -> JL[label="8"];
EE -> VL[label="7"];
EE -> XP[label="5"];
EE -> TY[label="5"];
EE -> EM[label="4"];
EE -> BJ[label="7"];
EE -> JJ[label="5"];
EE -> RW[label="7"];
EE -> EI[label="6"];
EE -> SL[label="9"];
EE -> EE[label="0"];
EE -> WK[label="7"];
EE -> AW[label="5"];
EE -> XL[label="1"];
EE -> JF[label="3"];
EE -> LU[label="3"];
EE -> CI[label="7"];
EE -> ED[label="4"];
EE -> JS[label="6"];
EE -> NE[label="6"];
EE -> DI[label="6"];
EE -> WP[label="3"];
EE -> GO[label="7"];
EE -> HP[label="10"];
WK -> OK[label="6"];
WK -> JY[label="13"];
WK -> FX[label="5"];
WK -> TD[label="10"];
WK -> VF[label="8"];
WK -> TT[label="12"];
WK -> KR[label="3"];
WK -> HN[label="4"];
WK -> MC[label="6"];
WK -> XM[label="3"];
WK -> XE[label="3"];
WK -> ZF[label="3"];
WK -> DS[label="7"];
WK -> AF[label="2"];
WK -> NL[label="5"];
WK -> LF[label="6"];
WK -> XZ[label="11"];
WK -> TQ[label="4"];
WK -> WO[label="9"];
WK -> TH[label="7"];
WK -> AA[label="3"];
WK -> KB[label="6"];
WK -> IV[label="6"];
WK -> MI[label="7"];
WK -> EX[label="3"];
WK -> ZZ[label="2"];
WK -> KF[label="4"];
WK -> PK[label="6"];
WK -> TR[label="9"];
WK -> YG[label="5"];
WK -> JL[label="4"];
WK -> VL[label="2"];
WK -> XP[label="4"];
WK -> TY[label="2"];
WK -> EM[label="4"];
WK -> BJ[label="1"];
WK -> JJ[label="4"];
WK -> RW[label="7"];
WK -> EI[label="2"];
WK -> SL[label="4"];
WK -> EE[label="7"];
WK -> WK[label="0"];
WK -> AW[label="3"];
WK -> XL[label="7"];
WK -> JF[label="8"];
WK -> LU[label="8"];
WK -> CI[label="3"];
WK -> ED[label="9"];
WK -> JS[label="1"];
WK -> NE[label="8"];
WK -> DI[label="10"];
WK -> WP[label="5"];
WK -> GO[label="4"];
WK -> HP[label="5"];
AW -> OK[label="6"];
AW -> JY[label="13"];
AW -> FX[label="5"];
AW -> TD[label="10"];
AW -> VF[label="8"];
AW -> TT[label="12"];
AW -> KR[label="3"];
AW -> HN[label="5"];
AW -> MC[label="6"];
AW -> XM[label="2"];
AW -> XE[label="2"];
AW -> ZF[label="2"];
AW -> DS[label="7"];
AW -> AF[label="1"];
AW -> NL[label="2"];
AW -> LF[label="6"];
AW -> XZ[label="11"];
AW -> TQ[label="4"];
AW -> WO[label="9"];
AW -> TH[label="7"];
AW -> AA[label="4"];
AW -> KB[label="3"];
AW -> IV[label="6"];
AW -> MI[label="7"];
AW -> EX[label="4"];
AW -> ZZ[label="5"];
AW -> KF[label="3"];
AW -> PK[label="7"];
AW -> TR[label="9"];
AW -> YG[label="6"];
AW -> JL[label="3"];
AW -> VL[label="4"];
AW -> XP[label="3"];
AW -> TY[label="5"];
AW -> EM[label="1"];
AW -> BJ[label="2"];
AW -> JJ[label="2"];
AW -> RW[label="7"];
AW -> EI[label="3"];
AW -> SL[label="5"];
AW -> EE[label="5"];
AW -> WK[label="3"];
AW -> AW[label="0"];
AW -> XL[label="4"];
AW -> JF[label="8"];
AW -> LU[label="8"];
AW -> CI[label="2"];
AW -> ED[label="9"];
AW -> JS[label="4"];
AW -> NE[label="8"];
AW -> DI[label="10"];
AW -> WP[label="2"];
AW -> GO[label="4"];
AW -> HP[label="6"];
XL -> OK[label="8"];
XL -> JY[label="9"];
XL -> FX[label="7"];
XL -> TD[label="6"];
XL -> VF[label="5"];
XL -> TT[label="8"];
XL -> KR[label="5"];
XL -> HN[label="4"];
XL -> MC[label="2"];
XL -> XM[label="6"];
XL -> XE[label="6"];
XL -> ZF[label="4"];
XL -> DS[label="6"];
XL -> AF[label="5"];
XL -> NL[label="4"];
XL -> LF[label="7"];
XL -> XZ[label="7"];
XL -> TQ[label="6"];
XL -> WO[label="6"];
XL -> TH[label="3"];
XL -> AA[label="5"];
XL -> KB[label="1"];
XL -> IV[label="8"];
XL -> MI[label="3"];
XL -> EX[label="8"];
XL -> ZZ[label="7"];
XL -> KF[label="5"];
XL -> PK[label="9"];
XL -> TR[label="6"];
XL -> YG[label="3"];
XL -> JL[label="7"];
XL -> VL[label="6"];
XL -> XP[label="6"];
XL -> TY[label="6"];
XL -> EM[label="3"];
XL -> BJ[label="6"];
XL -> JJ[label="4"];
XL -> RW[label="8"];
XL -> EI[label="5"];
XL -> SL[label="9"];
XL -> EE[label="1"];
XL -> WK[label="7"];
XL -> AW[label="4"];
XL -> XL[label="0"];
XL -> JF[label="4"];
XL -> LU[label="4"];
XL -> CI[label="6"];
XL -> ED[label="5"];
XL -> JS[label="6"];
XL -> NE[label="7"];
XL -> DI[label="7"];
XL -> WP[label="2"];
XL -> GO[label="6"];
XL -> HP[label="10"];
JF -> OK[label="9"];
JF -> JY[label="5"];
JF -> FX[label="8"];
JF -> TD[label="2"];
JF -> VF[label="5"];
JF -> TT[label="4"];
JF -> KR[label="7"];
JF -> HN[label="4"];
JF -> MC[label="2"];
JF -> XM[label="9"];
JF -> XE[label="7"];
JF -> ZF[label="8"];
JF -> DS[label="6"];
JF -> AF[label="8"];
JF -> NL[label="7"];
JF -> LF[label="7"];
JF -> XZ[label="3"];
JF -> TQ[label="6"];
JF -> WO[label="6"];
JF -> TH[label="3"];
JF -> AA[label="5"];
JF -> KB[label="5"];
JF -> IV[label="9"];
JF -> MI[label="1"];
JF -> EX[label="9"];
JF -> ZZ[label="8"];
JF -> KF[label="6"];
JF -> PK[label="10"];
JF -> TR[label="6"];
JF -> YG[label="3"];
JF -> JL[label="10"];
JF -> VL[label="8"];
JF -> XP[label="6"];
JF -> TY[label="6"];
JF -> EM[label="7"];
JF -> BJ[label="9"];
JF -> JJ[label="8"];
JF -> RW[label="8"];
JF -> EI[label="8"];
JF -> SL[label="10"];
JF -> EE[label="3"];
JF -> WK[label="8"];
JF -> AW[label="8"];
JF -> XL[label="4"];
JF -> JF[label="0"];
JF -> LU[label="4"];
JF -> CI[label="8"];
JF -> ED[label="1"];
JF -> JS[label="7"];
JF -> NE[label="7"];
JF -> DI[label="7"];
JF -> WP[label="6"];
JF -> GO[label="8"];
JF -> HP[label="11"];
LU -> OK[label="5"];
LU -> JY[label="9"];
LU -> FX[label="4"];
LU -> TD[label="6"];
LU -> VF[label="1"];
LU -> TT[label="8"];
LU -> KR[label="6"];
LU -> HN[label="4"];
LU -> MC[label="2"];
LU -> XM[label="9"];
LU -> XE[label="7"];
LU -> ZF[label="8"];
LU -> DS[label="2"];
LU -> AF[label="8"];
LU -> NL[label="7"];
LU -> LF[label="3"];
LU -> XZ[label="7"];
LU -> TQ[label="6"];
LU -> WO[label="2"];
LU -> TH[label="1"];
LU -> AA[label="5"];
LU -> KB[label="5"];
LU -> IV[label="5"];
LU -> MI[label="3"];
LU -> EX[label="9"];
LU -> ZZ[label="8"];
LU -> KF[label="6"];
LU -> PK[label="6"];
LU -> TR[label="2"];
LU -> YG[label="3"];
LU -> JL[label="10"];
LU -> VL[label="7"];
LU -> XP[label="6"];
LU -> TY[label="6"];
LU -> EM[label="7"];
LU -> BJ[label="9"];
LU -> JJ[label="7"];
LU -> RW[label="4"];
LU -> EI[label="8"];
LU -> SL[label="8"];
LU -> EE[label="3"];
LU -> WK[label="8"];
LU -> AW[label="8"];
LU -> XL[label="4"];
LU -> JF[label="4"];
LU -> LU[label="0"];
LU -> CI[label="7"];
LU -> ED[label="5"];
LU -> JS[label="7"];
LU -> NE[label="3"];
LU -> DI[label="3"];
LU -> WP[label="6"];
LU -> GO[label="5"];
LU -> HP[label="7"];
CI -> OK[label="4"];
CI -> JY[label="13"];
CI -> FX[label="3"];
CI -> TD[label="10"];
CI -> VF[label="6"];
CI -> TT[label="12"];
CI -> KR[label="1"];
CI -> HN[label="4"];
CI -> MC[label="6"];
CI -> XM[label="2"];
CI -> XE[label="2"];
CI -> ZF[label="4"];
CI -> DS[label="5"];
CI -> AF[label="1"];
CI -> NL[label="4"];
CI -> LF[label="4"];
CI -> XZ[label="11"];
CI -> TQ[label="2"];
CI -> WO[label="7"];
CI -> TH[label="7"];
CI -> AA[label="3"];
CI -> KB[label="5"];
CI -> IV[label="4"];
CI -> MI[label="7"];
CI -> EX[label="4"];
CI -> ZZ[label="4"];
CI -> KF[label="4"];
CI -> PK[label="5"];
CI -> TR[label="7"];
CI -> YG[label="5"];
CI -> JL[label="3"];
CI -> VL[label="2"];
CI -> XP[label="3"];
CI -> TY[label="4"];
CI -> EM[label="3"];
CI -> BJ[label="2"];
CI -> JJ[label="2"];
CI -> RW[label="5"];
CI -> EI[label="4"];
CI -> SL[label="5"];
CI -> EE[label="7"];
CI -> WK[label="3"];
CI -> AW[label="2"];
CI -> XL[label="6"];
CI -> JF[label="8"];
CI -> LU[label="7"];
CI -> CI[label="0"];
CI -> ED[label="9"];
CI -> JS[label="3"];
CI -> NE[label="6"];
CI -> DI[label="8"];
CI -> WP[label="4"];
CI -> GO[label="2"];
CI -> HP[label="6"];
ED -> OK[label="10"];
ED -> JY[label="4"];
ED -> FX[label="9"];
ED -> TD[label="1"];
ED -> VF[label="6"];
ED -> TT[label="3"];
ED -> KR[label="8"];
ED -> HN[label="5"];
ED -> MC[label="3"];
ED -> XM[label="10"];
ED -> XE[label="8"];
ED -> ZF[label="9"];
ED -> DS[label="7"];
ED -> AF[label="9"];
ED -> NL[label="8"];
ED -> LF[label="8"];
ED -> XZ[label="2"];
ED -> TQ[label="7"];
ED -> WO[label="7"];
ED -> TH[label="4"];
ED -> AA[label="6"];
ED -> KB[label="6"];
ED -> IV[label="10"];
ED -> MI[label="2"];
ED -> EX[label="10"];
ED -> ZZ[label="9"];
ED -> KF[label="7"];
ED -> PK[label="11"];
ED -> TR[label="7"];
ED -> YG[label="4"];
ED -> JL[label="11"];
ED -> VL[label="9"];
ED -> XP[label="7"];
ED -> TY[label="7"];
ED -> EM[label="8"];
ED -> BJ[label="10"];
ED -> JJ[label="9"];
ED -> RW[label="9"];
ED -> EI[label="9"];
ED -> SL[label="11"];
ED -> EE[label="4"];
ED -> WK[label="9"];
ED -> AW[label="9"];
ED -> XL[label="5"];
ED -> JF[label="1"];
ED -> LU[label="5"];
ED -> CI[label="9"];
ED -> ED[label="0"];
ED -> JS[label="8"];
ED -> NE[label="8"];
ED -> DI[label="8"];
ED -> WP[label="7"];
ED -> GO[label="9"];
ED -> HP[label="12"];
JS -> OK[label="5"];
JS -> JY[label="12"];
JS -> FX[label="4"];
JS -> TD[label="9"];
JS -> VF[label="7"];
JS -> TT[label="11"];
JS -> KR[label="2"];
JS -> HN[label="3"];
JS -> MC[label="5"];
JS -> XM[label="4"];
JS -> XE[label="4"];
JS -> ZF[label="2"];
JS -> DS[label="6"];
JS -> AF[label="3"];
JS -> NL[label="4"];
JS -> LF[label="5"];
JS -> XZ[label="10"];
JS -> TQ[label="3"];
JS -> WO[label="8"];
JS -> TH[label="6"];
JS -> AA[label="2"];
JS -> KB[label="5"];
JS -> IV[label="5"];
JS -> MI[label="6"];
JS -> EX[label="2"];
JS -> ZZ[label="1"];
JS -> KF[label="3"];
JS -> PK[label="5"];
JS -> TR[label="8"];
JS -> YG[label="4"];
JS -> JL[label="3"];
JS -> VL[label="1"];
JS -> XP[label="3"];
JS -> TY[label="1"];
JS -> EM[label="3"];
JS -> BJ[label="2"];
JS -> JJ[label="3"];
JS -> RW[label="6"];
JS -> EI[label="1"];
JS -> SL[label="3"];
JS -> EE[label="6"];
JS -> WK[label="1"];
JS -> AW[label="4"];
JS -> XL[label="6"];
JS -> JF[label="7"];
JS -> LU[label="7"];
JS -> CI[label="3"];
JS -> ED[label="8"];
JS -> JS[label="0"];
JS -> NE[label="7"];
JS -> DI[label="9"];
JS -> WP[label="4"];
JS -> GO[label="3"];
JS -> HP[label="4"];
NE -> OK[label="2"];
NE -> JY[label="12"];
NE -> FX[label="3"];
NE -> TD[label="9"];
NE -> VF[label="2"];
NE -> TT[label="11"];
NE -> KR[label="5"];
NE -> HN[label="7"];
NE -> MC[label="5"];
NE -> XM[label="8"];
NE -> XE[label="8"];
NE -> ZF[label="8"];
NE -> DS[label="3"];
NE -> AF[label="7"];
NE -> NL[label="8"];
NE -> LF[label="4"];
NE -> XZ[label="10"];
NE -> TQ[label="6"];
NE -> WO[label="1"];
NE -> TH[label="4"];
NE -> AA[label="7"];
NE -> KB[label="8"];
NE -> IV[label="4"];
NE -> MI[label="6"];
NE -> EX[label="8"];
NE -> ZZ[label="8"];
NE -> KF[label="8"];
NE -> PK[label="5"];
NE -> TR[label="3"];
NE -> YG[label="6"];
NE -> JL[label="9"];
NE -> VL[label="6"];
NE -> XP[label="8"];
NE -> TY[label="8"];
NE -> EM[label="7"];
NE -> BJ[label="8"];
NE -> JJ[label="6"];
NE -> RW[label="1"];
NE -> EI[label="8"];
NE -> SL[label="7"];
NE -> EE[label="6"];
NE -> WK[label="8"];
NE -> AW[label="8"];
NE -> XL[label="7"];
NE -> JF[label="7"];
NE -> LU[label="3"];
NE -> CI[label="6"];
NE -> ED[label="8"];
NE -> JS[label="7"];
NE -> NE[label="0"];
NE -> DI[label="4"];
NE -> WP[label="8"];
NE -> GO[label="4"];
NE -> HP[label="6"];
DI -> OK[label="6"];
DI -> JY[label="12"];
DI -> FX[label="5"];
DI -> TD[label="9"];
DI -> VF[label="2"];
DI -> TT[label="11"];
DI -> KR[label="7"];
DI -> HN[label="7"];
DI -> MC[label="5"];
DI -> XM[label="10"];
DI -> XE[label="10"];
DI -> ZF[label="10"];
DI -> DS[label="3"];
DI -> AF[label="9"];
DI -> NL[label="10"];
DI -> LF[label="4"];
DI -> XZ[label="10"];
DI -> TQ[label="8"];
DI -> WO[label="3"];
DI -> TH[label="4"];
DI -> AA[label="8"];
DI -> KB[label="8"];
DI -> IV[label="6"];
DI -> MI[label="6"];
DI -> EX[label="10"];
DI -> ZZ[label="10"];
DI -> KF[label="9"];
DI -> PK[label="7"];
DI -> TR[label="1"];
DI -> YG[label="6"];
DI -> JL[label="11"];
DI -> VL[label="8"];
DI -> XP[label="9"];
DI -> TY[label="9"];
DI -> EM[label="9"];
DI -> BJ[label="10"];
DI -> JJ[label="8"];
DI -> RW[label="5"];
DI -> EI[label="10"];
DI -> SL[label="9"];
DI -> EE[label="6"];
DI -> WK[label="10"];
DI -> AW[label="10"];
DI -> XL[label="7"];
DI -> JF[label="7"];
DI -> LU[label="3"];
DI -> CI[label="8"];
DI -> ED[label="8"];
DI -> JS[label="9"];
DI -> NE[label="4"];
DI -> DI[label="0"];
DI -> WP[label="9"];
DI -> GO[label="6"];
DI -> HP[label="8"];
WP -> OK[label="6"];
WP -> JY[label="11"];
WP -> FX[label="5"];
WP -> TD[label="8"];
WP -> VF[label="7"];
WP -> TT[label="10"];
WP -> KR[label="3"];
WP -> HN[label="5"];
WP -> MC[label="4"];
WP -> XM[label="4"];
WP -> XE[label="4"];
WP -> ZF[label="2"];
WP -> DS[label="7"];
WP -> AF[label="3"];
WP -> NL[label="2"];
WP -> LF[label="6"];
WP -> XZ[label="9"];
WP -> TQ[label="4"];
WP -> WO[label="8"];
WP -> TH[label="5"];
WP -> AA[label="4"];
WP -> KB[label="1"];
WP -> IV[label="6"];
WP -> MI[label="5"];
WP -> EX[label="6"];
WP -> ZZ[label="5"];
WP -> KF[label="3"];
WP -> PK[label="7"];
WP -> TR[label="8"];
WP -> YG[label="5"];
WP -> JL[label="5"];
WP -> VL[label="4"];
WP -> XP[label="5"];
WP -> TY[label="5"];
WP -> EM[label="1"];
WP -> BJ[label="4"];
WP -> JJ[label="2"];
WP -> RW[label="7"];
WP -> EI[label="3"];
WP -> SL[label="7"];
WP -> EE[label="3"];
WP -> WK[label="5"];
WP -> AW[label="2"];
WP -> XL[label="2"];
WP -> JF[label="6"];
WP -> LU[label="6"];
WP -> CI[label="4"];
WP -> ED[label="7"];
WP -> JS[label="4"];
WP -> NE[label="8"];
WP -> DI[label="9"];
WP -> WP[label="0"];
WP -> GO[label="4"];
WP -> HP[label="8"];
GO -> OK[label="2"];
GO -> JY[label="13"];
GO -> FX[label="1"];
GO -> TD[label="10"];
GO -> VF[label="4"];
GO -> TT[label="12"];
GO -> KR[label="1"];
GO -> HN[label="4"];
GO -> MC[label="6"];
GO -> XM[label="4"];
GO -> XE[label="4"];
GO -> ZF[label="4"];
GO -> DS[label="3"];
GO -> AF[label="3"];
GO -> NL[label="4"];
GO -> LF[label="2"];
GO -> XZ[label="11"];
GO -> TQ[label="2"];
GO -> WO[label="5"];
GO -> TH[label="6"];
GO -> AA[label="3"];
GO -> KB[label="5"];
GO -> IV[label="2"];
GO -> MI[label="7"];
GO -> EX[label="5"];
GO -> ZZ[label="4"];
GO -> KF[label="4"];
GO -> PK[label="3"];
GO -> TR[label="5"];
GO -> YG[label="5"];
GO -> JL[label="5"];
GO -> VL[label="2"];
GO -> XP[label="4"];
GO -> TY[label="4"];
GO -> EM[label="3"];
GO -> BJ[label="4"];
GO -> JJ[label="2"];
GO -> RW[label="3"];
GO -> EI[label="4"];
GO -> SL[label="5"];
GO -> EE[label="7"];
GO -> WK[label="4"];
GO -> AW[label="4"];
GO -> XL[label="6"];
GO -> JF[label="8"];
GO -> LU[label="5"];
GO -> CI[label="2"];
GO -> ED[label="9"];
GO -> JS[label="3"];
GO -> NE[label="4"];
GO -> DI[label="6"];
GO -> WP[label="4"];
GO -> GO[label="0"];
GO -> HP[label="4"];
HP -> OK[label="4"];
HP -> JY[label="16"];
HP -> FX[label="3"];
HP -> TD[label="13"];
HP -> VF[label="6"];
HP -> TT[label="15"];
HP -> KR[label="5"];
HP -> HN[label="7"];
HP -> MC[label="9"];
HP -> XM[label="4"];
HP -> XE[label="6"];
HP -> ZF[label="6"];
HP -> DS[label="5"];
HP -> AF[label="5"];
HP -> NL[label="8"];
HP -> LF[label="4"];
HP -> XZ[label="14"];
HP -> TQ[label="6"];
HP -> WO[label="7"];
HP -> TH[label="8"];
HP -> AA[label="6"];
HP -> KB[label="9"];
HP -> IV[label="2"];
HP -> MI[label="10"];
HP -> EX[label="2"];
HP -> ZZ[label="3"];
HP -> KF[label="7"];
HP -> PK[label="1"];
HP -> TR[label="7"];
HP -> YG[label="8"];
HP -> JL[label="3"];
HP -> VL[label="5"];
HP -> XP[label="7"];
HP -> TY[label="5"];
HP -> EM[label="7"];
HP -> BJ[label="6"];
HP -> JJ[label="6"];
HP -> RW[label="5"];
HP -> EI[label="5"];
HP -> SL[label="1"];
HP -> EE[label="10"];
HP -> WK[label="5"];
HP -> AW[label="6"];
HP -> XL[label="10"];
HP -> JF[label="11"];
HP -> LU[label="7"];
HP -> CI[label="6"];
HP -> ED[label="12"];
HP -> JS[label="4"];
HP -> NE[label="6"];
HP -> DI[label="8"];
HP -> WP[label="8"];
HP -> GO[label="4"];
HP -> HP[label="0"];
}
